<?xml version="1.0" encoding="UTF-8"?>
<svg width="24px" height="24px" viewBox="0 0 24 24" version="1.1" xmlns="http://www.w3.org/2000/svg" xmlns:xlink="http://www.w3.org/1999/xlink">
    <!-- Generator: Sketch 48.1 (47250) - http://www.bohemiancoding.com/sketch -->
    <title>icon/20px/code</title>
    <desc>Created with Sketch.</desc>
    <defs>
        <path d="M14.38455,4.0314956 C14.90655,4.2114956 15.18455,4.7804956 15.00455,5.3024956 L10.17555,19.3484956 C9.99655,19.8704956 9.42755,20.1484956 8.90455,19.9684956 C8.38255,19.7884956 8.10455,19.2194956 8.28455,18.6974956 L13.11355,4.6524956 C13.29355,4.1294956 13.86255,3.8514956 14.38455,4.0314956 Z M8.24685,12.2415956 C8.64285,12.6255956 8.65285,13.2595956 8.26885,13.6555956 C7.88385,14.0525956 7.25085,14.0615956 6.85485,13.6775956 L3.53385,10.4585956 C3.12885,10.0655956 3.12885,9.4155956 3.53385,9.0225956 L7.07385,5.5905956 C7.47085,5.2055956 8.10385,5.2155956 8.48785,5.6125956 C8.87285,6.0085956 8.86285,6.6415956 8.46585,7.0265956 L5.66685,9.7405956 L8.24685,12.2415956 Z M20.46615,13.8096956 C20.87115,14.2026956 20.87115,14.8526956 20.46615,15.2456956 L16.92615,18.6776956 C16.52915,19.0616956 15.89615,19.0526956 15.51215,18.6556956 C15.12715,18.2586956 15.13715,17.6256956 15.53415,17.2416956 L18.33315,14.5276956 L15.75315,12.0266956 C15.35715,11.6416956 15.34715,11.0086956 15.73115,10.6126956 C16.11615,10.2156956 16.74915,10.2056956 17.14515,10.5906956 L20.46615,13.8096956 Z" id="path-1"></path>
    </defs>
    <g id="Symbols" stroke="none" stroke-width="1" fill="none" fill-rule="evenodd">
        <g id="icon/20px/code">
            <mask id="mask-2" fill="white">
                <use xlink:href="#path-1"></use>
            </mask>
            <use id="Combined-Shape" fill="#3F4F71" xlink:href="#path-1"></use>
        </g>
    </g>
</svg>