<?xml version="1.0" encoding="UTF-8"?>
<svg width="24px" height="24px" viewBox="0 0 24 24" version="1.1" xmlns="http://www.w3.org/2000/svg" xmlns:xlink="http://www.w3.org/1999/xlink">
    <!-- Generator: Sketch 48.1 (47250) - http://www.bohemiancoding.com/sketch -->
    <title>icon/20px/credit-card-filled</title>
    <desc>Created with Sketch.</desc>
    <defs>
        <path d="M3,10.988 L21,10.988 L21,17 C21,18.1 20.1,19 19,19 L5,19 C3.9,19 3,18.1 3,17 L3,10.988 Z M6.013,16.0002 L8.013,16.0002 L8.013,14.0002 L6.013,14.0002 L6.013,16.0002 Z M21,8.993 L3,8.993 L3,7 C3,5.9 3.9,5 5,5 L19,5 C20.1,5 21,5.9 21,7 L21,8.993 Z" id="path-1"></path>
    </defs>
    <g id="Symbols" stroke="none" stroke-width="1" fill="none" fill-rule="evenodd">
        <g id="icon/20px/credit-card-filled">
            <mask id="mask-2" fill="white">
                <use xlink:href="#path-1"></use>
            </mask>
            <use id="Combined-Shape" fill="#3F4F71" xlink:href="#path-1"></use>
        </g>
    </g>
</svg>