<?xml version="1.0" encoding="UTF-8"?>
<svg width="24px" height="24px" viewBox="0 0 24 24" version="1.1" xmlns="http://www.w3.org/2000/svg" xmlns:xlink="http://www.w3.org/1999/xlink">
    <!-- Generator: Sketch 48.1 (47250) - http://www.bohemiancoding.com/sketch -->
    <title>icon/20px/notification-direct</title>
    <desc>Created with Sketch.</desc>
    <defs>
        <path d="M0,9.62565876 L0,7.62565876 L2.01989024,7.62565876 C2.02145824,7.62565876 2.02070257,2.95540352 2.0200674,-1.43923762e-11 L4.01950523,1.36304791e-09 L4.01950523,7.6198001 C4.01950523,8.72760525 3.13207194,9.62565876 2.01989024,9.62565876 L0,9.62565876 Z M6.58575,18.8377403 C5.80475,18.0567403 5.80475,16.7897403 6.58575,16.0087403 L9.41475,18.8377403 C8.63375,19.6187403 7.36675,19.6187403 6.58575,18.8377403 Z M11.3839695,6.48674025 C12.3699695,5.50174025 13.6619695,5.00874025 14.9539695,5.00874025 C15.9259695,5.00874025 16.8989695,5.28874025 17.7419695,5.84774025 C17.7619695,5.82174025 17.7849695,5.79774025 17.8079695,5.77374025 C18.2029695,5.37974025 18.8419695,5.37974025 19.2359695,5.77374025 C19.6299695,6.16874025 19.6299695,6.80774025 19.2359695,7.20074025 C19.2119695,7.22474025 19.1869695,7.24774025 19.1619695,7.26774025 C20.4629695,9.22874025 20.2499695,11.8967403 18.5219695,13.6237403 L17.7971246,14.3489237 C17.0150037,15.1314099 15.9838327,16.5593534 15.4854363,17.5553173 L13.9759695,20.5717403 C13.7269695,21.0717403 13.2029695,21.1557403 12.8049695,20.7587403 L4.24896952,12.2037403 C3.85196952,11.8067403 3.94096952,11.2797403 4.43596952,11.0317403 L7.45302014,9.52352876 C8.44158188,9.02935071 9.8737602,7.99765494 10.6591246,7.21192374 L11.3839695,6.48674025 Z M14.1228916,16.1167773 C14.6403984,15.1420387 15.6909292,13.7205537 16.4765649,12.9345513 L17.2016602,12.2091174 C18.2313239,11.1800496 18.3834189,9.57101608 17.5888837,8.37341154 C17.3995402,8.0880137 16.8711385,7.60804825 16.730174,7.51457352 C16.2299327,7.18285957 15.6447113,7.00874025 15.0474643,7.00874025 C14.2426582,7.00874025 13.4726592,7.32080316 12.89142,7.90121194 L11.9410727,8.85200309 C11.1569741,9.63646792 9.72229082,10.671842 8.74003589,11.1628671 L7,12.0327038 L13.0692829,18.1012787 L14.1228916,16.1167773 Z" id="path-1"></path>
    </defs>
    <g id="Symbols" stroke="none" stroke-width="1" fill="none" fill-rule="evenodd">
        <g id="icon/20px/notification-direct">
            <mask id="mask-2" fill="white">
                <use xlink:href="#path-1"></use>
            </mask>
            <use id="Combined-Shape" fill="#3F4F71" xlink:href="#path-1"></use>
        </g>
    </g>
</svg>