<?xml version="1.0" encoding="UTF-8"?>
<svg width="24px" height="24px" viewBox="0 0 24 24" version="1.1" xmlns="http://www.w3.org/2000/svg" xmlns:xlink="http://www.w3.org/1999/xlink">
    <!-- Generator: Sketch 48.1 (47250) - http://www.bohemiancoding.com/sketch -->
    <title>icon/20px/question-circle</title>
    <desc>Created with Sketch.</desc>
    <defs>
        <path d="M13,17 C13,17.552 12.552,18 12,18 C11.448,18 11,17.552 11,17 C11,16.448 11.448,16 12,16 C12.552,16 13,16.448 13,17 M15.5,9.5 C15.5,11.083 14.444,12.423 13,12.854 L13,14 C13,14.552 12.552,15 12,15 C11.448,15 11,14.552 11,14 L11,12 C11,11.448 11.448,11 12,11 C12.827,11 13.5,10.327 13.5,9.5 C13.5,8.673 12.827,8 12,8 C11.173,8 10.5,8.673 10.5,9.5 C10.5,10.052 10.052,10.5 9.5,10.5 C8.948,10.5 8.5,10.052 8.5,9.5 C8.5,7.57 10.07,6 12,6 C13.93,6 15.5,7.57 15.5,9.5 M12,20 C7.589,20 4,16.411 4,12 C4,7.589 7.589,4 12,4 C16.411,4 20,7.589 20,12 C20,16.411 16.411,20 12,20 M12,2 C6.477,2 2,6.477 2,12 C2,17.523 6.477,22 12,22 C17.523,22 22,17.523 22,12 C22,6.477 17.523,2 12,2" id="path-1"></path>
    </defs>
    <g id="Symbols" stroke="none" stroke-width="1" fill="none" fill-rule="evenodd">
        <g id="icon/20px/question-circle">
            <mask id="mask-2" fill="white">
                <use xlink:href="#path-1"></use>
            </mask>
            <use id="question-circle" fill="#42526E" xlink:href="#path-1"></use>
        </g>
    </g>
</svg>