<?xml version="1.0" encoding="UTF-8"?>
<svg width="24px" height="24px" viewBox="0 0 24 24" version="1.1" xmlns="http://www.w3.org/2000/svg" xmlns:xlink="http://www.w3.org/1999/xlink">
    <!-- Generator: Sketch 48.1 (47250) - http://www.bohemiancoding.com/sketch -->
    <title>bitbucket/20px/repository</title>
    <desc>Created with Sketch.</desc>
    <defs>
        <path d="M19.707,16.293 L16.707,13.293 C16.316,12.902 15.684,12.902 15.293,13.293 C14.902,13.684 14.902,14.316 15.293,14.707 L17.586,17 L15.293,19.293 C14.902,19.684 14.902,20.316 15.293,20.707 C15.488,20.902 15.744,21 16,21 C16.256,21 16.512,20.902 16.707,20.707 L19.707,17.707 C20.098,17.316 20.098,16.684 19.707,16.293 M8,11 C8.256,11 8.512,10.902 8.707,10.707 C9.098,10.316 9.098,9.684 8.707,9.293 L6.414,7 L8.707,4.707 C9.098,4.316 9.098,3.684 8.707,3.293 C8.316,2.902 7.684,2.902 7.293,3.293 L4.293,6.293 C3.902,6.684 3.902,7.316 4.293,7.707 L7.293,10.707 C7.488,10.902 7.744,11 8,11 M17.366,4.706 L8.366,20.294 C8.181,20.615 7.845,20.794 7.499,20.794 C7.33,20.794 7.158,20.751 7,20.661 C6.521,20.384 6.358,19.773 6.634,19.294 L15.634,3.706 C15.91,3.228 16.519,3.063 17,3.339 C17.478,3.616 17.642,4.227 17.366,4.706" id="path-1"></path>
    </defs>
    <g id="Symbols" stroke="none" stroke-width="1" fill="none" fill-rule="evenodd">
        <g id="bitbucket/20px/repository">
            <mask id="mask-2" fill="white">
                <use xlink:href="#path-1"></use>
            </mask>
            <use id="repository" fill="#172B4D" xlink:href="#path-1"></use>
        </g>
    </g>
</svg>