<?xml version="1.0" encoding="UTF-8"?>
<svg width="24px" height="24px" viewBox="0 0 24 24" version="1.1" xmlns="http://www.w3.org/2000/svg" xmlns:xlink="http://www.w3.org/1999/xlink">
    <!-- Generator: Sketch 48.1 (47250) - http://www.bohemiancoding.com/sketch -->
    <title>bitbucket/20px/source</title>
    <desc>Created with Sketch.</desc>
    <defs>
        <path d="M14.2950111,16.2784747 L18.5683296,12 L14.2950111,7.72152528 C13.901663,7.32770256 13.901663,6.68918977 14.2950111,6.29536704 C14.6883592,5.90154432 15.3261025,5.90154432 15.7194506,6.29536704 L20.7049889,11.2869209 C21.098337,11.6807436 21.098337,12.3192564 20.7049889,12.7130791 L15.7194506,17.704633 C15.3261025,18.0984557 14.6883592,18.0984557 14.2950111,17.704633 C13.901663,17.3108102 13.901663,16.6722974 14.2950111,16.2784747 Z M9.70498892,7.72152528 L5.43167036,12 L9.70498892,16.2784747 C10.098337,16.6722974 10.098337,17.3108102 9.70498892,17.704633 C9.3116408,18.0984557 8.67389751,18.0984557 8.2805494,17.704633 L3.29501108,12.7130791 C2.90166297,12.3192564 2.90166297,11.6807436 3.29501108,11.2869209 L8.2805494,6.29536704 C8.67389751,5.90154432 9.3116408,5.90154432 9.70498892,6.29536704 C10.098337,6.68918977 10.098337,7.32770256 9.70498892,7.72152528 Z" id="path-1"></path>
    </defs>
    <g id="Symbols" stroke="none" stroke-width="1" fill="none" fill-rule="evenodd">
        <g id="bitbucket/20px/source">
            <mask id="mask-2" fill="white">
                <use xlink:href="#path-1"></use>
            </mask>
            <use id="source" fill="#172B4D" fill-rule="nonzero" xlink:href="#path-1"></use>
        </g>
    </g>
</svg>