<?xml version="1.0" encoding="UTF-8"?>
<svg width="24px" height="24px" viewBox="0 0 24 24" version="1.1" xmlns="http://www.w3.org/2000/svg" xmlns:xlink="http://www.w3.org/1999/xlink">
    <!-- Generator: Sketch 48.1 (47250) - http://www.bohemiancoding.com/sketch -->
    <title>icon/20px/vid-raised-hand</title>
    <desc>Created with Sketch.</desc>
    <defs>
        <path d="M10.1,3 C12.309139,3 14.1,4.790861 14.1,7 C14.1,9.209139 12.309139,11 10.1,11 C7.890861,11 6.1,9.209139 6.1,7 C6.1,4.790861 7.890861,3 10.1,3 Z M13.1,12 C14.7568542,12 16.1,13.3431458 16.1,15 L16.1,18.6 C14.4406617,20.1383733 12.2627359,20.9952621 10,21 C7.82087797,20.9670682 5.7264701,20.1506041 4.1,18.7 L4.1,15 C4.1,13.3431458 5.44314575,12 7.1,12 L13.1,12 Z M15.7006702,10.5991063 L17.9,7.66666667 L17.9,5.00193278 C17.9,4.44960531 18.3477153,4 18.9,4 C19.4561352,4 19.9,4.44997423 19.9,5.00504557 L19.9,7.32828776 C19.9,7.8859119 19.6305222,8.69263707 19.2981045,9.1358607 L17.3018955,11.7974726 C16.9728302,12.2362264 16.3418278,12.3313708 15.9,12 C15.4550919,11.6663189 15.3689292,11.0414277 15.7006702,10.5991063 Z" id="path-1"></path>
    </defs>
    <g id="Symbols" stroke="none" stroke-width="1" fill="none" fill-rule="evenodd">
        <g id="icon/20px/vid-raised-hand">
            <mask id="mask-2" fill="white">
                <use xlink:href="#path-1"></use>
            </mask>
            <use id="Combined-Shape" fill="#3F4F71" xlink:href="#path-1"></use>
        </g>
    </g>
</svg>