<?xml version="1.0" encoding="UTF-8"?>
<svg width="16px" height="16px" viewBox="0 0 16 16" version="1.1" xmlns="http://www.w3.org/2000/svg" xmlns:xlink="http://www.w3.org/1999/xlink">
    <!-- Generator: Sketch 48.2 (47327) - http://www.bohemiancoding.com/sketch -->
    <title>icon/16px/arrow-down-left-16px</title>
    <desc>Created with Sketch.</desc>
    <defs>
        <path d="M9.405436,12.251439 C9.224436,12.432439 8.974436,12.544439 8.697436,12.544439 L4.473436,12.532439 C3.919436,12.529439 3.469436,12.080439 3.468436,11.526439 L3.455436,7.30343899 C3.457436,7.02643899 3.567436,6.77543899 3.749436,6.59443899 C3.928436,6.41443899 4.179436,6.30343899 4.456436,6.30243899 C5.010436,6.30543899 5.459436,6.75443899 5.462436,7.30843899 L5.467436,9.11143899 L6.384436,8.19443899 L7.736436,6.84243899 L10.831436,3.74843899 C11.221436,3.35643899 11.857436,3.35843899 12.249436,3.75143899 C12.641436,4.14343899 12.643436,4.77843899 12.252436,5.16943899 L9.157436,8.26443899 L7.805436,9.61543899 L6.888436,10.532439 L8.692436,10.538439 C9.245436,10.540439 9.695436,10.990439 9.697436,11.543439 C9.698436,11.820439 9.586436,12.070439 9.405436,12.251439" id="path-1"></path>
    </defs>
    <g id="Symbols" stroke="none" stroke-width="1" fill="none" fill-rule="evenodd">
        <g id="icon/16px/arrow-down-left">
            <mask id="mask-2" fill="white">
                <use xlink:href="#path-1"></use>
            </mask>
            <use id="Fill-1" fill="#42526E" xlink:href="#path-1"></use>
        </g>
    </g>
</svg>