<?xml version="1.0" encoding="UTF-8"?>
<svg width="16px" height="16px" viewBox="0 0 16 16" version="1.1" xmlns="http://www.w3.org/2000/svg" xmlns:xlink="http://www.w3.org/1999/xlink">
    <!-- Generator: Sketch 48.2 (47327) - http://www.bohemiancoding.com/sketch -->
    <title>icon/16px/arrow-up-circle-16px</title>
    <desc>Created with Sketch.</desc>
    <defs>
        <path d="M1,8 C1,11.866 4.134,15 8,15 C11.866,15 15,11.866 15,8 C15,4.134 11.866,1 8,1 C4.134,1 1,4.134 1,8 Z M5.406,7.781 C5.131,7.507 5.131,7.063 5.406,6.789 L7.502,4.705 C7.641,4.569 7.821,4.5 8.001,4.5 C8.182,4.5 8.361,4.569 8.498,4.705 L10.594,6.789 C10.731,6.927 10.8,7.107 10.8,7.285 C10.8,7.464 10.731,7.643 10.594,7.781 C10.318,8.053 9.874,8.053 9.6,7.781 L8.704,6.89 L8.704,7.799 L8.704,9.136 L8.704,10.8 C8.704,11.186 8.389,11.5 8,11.5 C7.611,11.5 7.297,11.186 7.297,10.8 L7.297,9.136 L7.297,7.799 L7.297,6.89 L6.401,7.781 C6.264,7.917 6.084,7.985 5.904,7.985 C5.724,7.985 5.544,7.917 5.406,7.781 Z" id="path-1"></path>
    </defs>
    <g id="Symbols" stroke="none" stroke-width="1" fill="none" fill-rule="evenodd">
        <g id="icon/16px/arrow-up-circle">
            <mask id="mask-2" fill="white">
                <use xlink:href="#path-1"></use>
            </mask>
            <use id="Clip-2" fill="#42526E" xlink:href="#path-1"></use>
        </g>
    </g>
</svg>