<?xml version="1.0" encoding="UTF-8"?>
<svg width="16px" height="16px" viewBox="0 0 16 16" version="1.1" xmlns="http://www.w3.org/2000/svg" xmlns:xlink="http://www.w3.org/1999/xlink">
    <!-- Generator: Sketch 48.2 (47327) - http://www.bohemiancoding.com/sketch -->
    <title>icon/16px/camera-16px</title>
    <desc>Created with Sketch.</desc>
    <defs>
        <path d="M5.31665141,3.30413996 L5.31665141,2.63330281 C5.31665141,2.26280968 5.62056499,1.96246566 5.99634731,1.96246566 L10.0036527,1.96246566 C10.3790384,1.96246566 10.6833486,2.26022667 10.6833486,2.63330281 L10.6833486,3.30413996 L12.6997495,3.30413996 C13.8090808,3.30413996 14.7083715,4.20080173 14.7083715,5.29785445 L14.7083715,12.0438198 C14.7083715,13.144918 13.8072279,14.0375343 12.6997495,14.0375343 L3.3002505,14.0375343 C2.19091921,14.0375343 1.29162851,13.1408726 1.29162851,12.0438198 L1.29162851,5.29785445 C1.29162851,4.19675634 2.19277208,3.30413996 3.3002505,3.30413996 L5.31665141,3.30413996 Z M2.63330281,4.64581426 L2.63330281,12.69586 L13.3666972,12.69586 L13.3666972,4.64581426 L2.63330281,4.64581426 Z M8,11.3541857 C6.51802749,11.3541857 5.31665141,10.1528097 5.31665141,8.67083715 C5.31665141,7.18886464 6.51802749,5.98748855 8,5.98748855 C9.48197251,5.98748855 10.6833486,7.18886464 10.6833486,8.67083715 C10.6833486,10.1528097 9.48197251,11.3541857 8,11.3541857 Z M8,10.0125114 C8.74098625,10.0125114 9.3416743,9.4118234 9.3416743,8.67083715 C9.3416743,7.9298509 8.74098625,7.32916285 8,7.32916285 C7.25901375,7.32916285 6.6583257,7.9298509 6.6583257,8.67083715 C6.6583257,9.4118234 7.25901375,10.0125114 8,10.0125114 Z M11.3541857,5.98748855 C11.3541857,5.61699543 11.6519468,5.31665141 12.0250229,5.31665141 C12.395516,5.31665141 12.69586,5.61441242 12.69586,5.98748855 C12.69586,6.35798168 12.398099,6.6583257 12.0250229,6.6583257 C11.6545298,6.6583257 11.3541857,6.36056469 11.3541857,5.98748855 Z" id="path-1"></path>
    </defs>
    <g id="Symbols" stroke="none" stroke-width="1" fill="none" fill-rule="evenodd">
        <g id="icon/16px/camera">
            <mask id="mask-2" fill="white">
                <use xlink:href="#path-1"></use>
            </mask>
            <use id="Combined-Shape" fill="#42526E" xlink:href="#path-1"></use>
        </g>
    </g>
</svg>