<?xml version="1.0" encoding="UTF-8"?>
<svg width="16px" height="16px" viewBox="0 0 16 16" version="1.1" xmlns="http://www.w3.org/2000/svg" xmlns:xlink="http://www.w3.org/1999/xlink">
    <!-- Generator: Sketch 48.2 (47327) - http://www.bohemiancoding.com/sketch -->
    <title>icon/16px/code-16px</title>
    <desc>Created with Sketch.</desc>
    <defs>
        <path d="M9.84838691,1.82320387 C10.2530159,1.9627311 10.4685079,2.40379216 10.3289807,2.80842111 L6.58577531,13.6961955 C6.44702323,14.1008245 6.00596217,14.3163165 5.60055807,14.1767893 C5.19592912,14.0372621 4.98043707,13.596201 5.1199643,13.1915721 L8.86316967,2.3045728 C9.0026969,1.89916869 9.44375796,1.68367665 9.84838691,1.82320387 Z M5.09074109,8.18727313 C5.39770099,8.48493121 5.4054525,8.9763771 5.10779442,9.283337 C4.80936119,9.59107204 4.31869045,9.5980484 4.01173056,9.30039032 L1.43745326,6.80517846 C1.12351701,6.50054402 1.12351701,5.99669571 1.43745326,5.69206127 L4.18148868,3.03174218 C4.48922373,2.73330895 4.97989447,2.74106046 5.27755255,3.04879551 C5.57598578,3.3557554 5.56823426,3.84642614 5.26049922,4.14485937 L3.09085088,6.24861986 L5.09074109,8.18727313 Z M14.5625467,9.4027878 C14.876483,9.70742224 14.876483,10.2112706 14.5625467,10.515905 L11.8185113,13.1762241 C11.5107763,13.4738822 11.0201055,13.4669058 10.7224475,13.1591707 C10.4240142,12.8514357 10.4317657,12.360765 10.7395008,12.0631069 L12.9091491,9.9593464 L10.9092589,8.02069313 C10.602299,7.7222599 10.5945475,7.23158916 10.8922056,6.92462926 C11.1906388,6.61689422 11.6813095,6.60914271 11.9882694,6.90757594 L14.5625467,9.4027878 Z" id="path-1"></path>
    </defs>
    <g id="Symbols" stroke="none" stroke-width="1" fill="none" fill-rule="evenodd">
        <g id="icon/16px/code">
            <mask id="mask-2" fill="white">
                <use xlink:href="#path-1"></use>
            </mask>
            <use id="Combined-Shape" fill="#42526E" xlink:href="#path-1"></use>
        </g>
    </g>
</svg>