<?xml version="1.0" encoding="UTF-8"?>
<svg width="16px" height="16px" viewBox="0 0 16 16" version="1.1" xmlns="http://www.w3.org/2000/svg" xmlns:xlink="http://www.w3.org/1999/xlink">
    <!-- Generator: Sketch 48.2 (47327) - http://www.bohemiancoding.com/sketch -->
    <title>icon/16px/edit-filled-small-16px</title>
    <desc>Created with Sketch.</desc>
    <defs>
        <path d="M1.37692381,13.6693286 L2.0073769,10.5906628 L5.40939877,13.9926329 L2.33068618,14.6230764 C1.76247012,14.739466 1.26053247,14.237536 1.37692381,13.6693286 Z M14.1665538,3.54796237 C14.7978152,4.17921413 14.7978152,5.20247242 14.1665538,5.83372418 L6.28023231,13.720734 L2.27928,9.71984256 L10.1656015,1.83283276 C10.4816364,1.51761101 10.8954722,1.36000013 11.3093081,1.36000013 C11.7223357,1.36000013 12.1361716,1.51761101 12.4522064,1.83283276 L14.1665538,3.54796237 Z" id="path-1"></path>
    </defs>
    <g id="Symbols" stroke="none" stroke-width="1" fill="none" fill-rule="evenodd">
        <g id="icon/16px/edit-filled-small">
            <mask id="mask-2" fill="white">
                <use xlink:href="#path-1"></use>
            </mask>
            <use id="edit-filled-small" fill="#42526E" xlink:href="#path-1"></use>
        </g>
    </g>
</svg>