<?xml version="1.0" encoding="UTF-8"?>
<svg width="16px" height="16px" viewBox="0 0 16 16" version="1.1" xmlns="http://www.w3.org/2000/svg" xmlns:xlink="http://www.w3.org/1999/xlink">
    <!-- Generator: Sketch 48.2 (47327) - http://www.bohemiancoding.com/sketch -->
    <title>icon/16px/email-16px</title>
    <desc>Created with Sketch.</desc>
    <defs>
        <path d="M13,12 L3,12 L3,6.313 L5.879,9.192 C6.464,9.777 7.231,10.069 8,10.069 C8.769,10.069 9.536,9.777 10.121,9.192 L13,6.313 L13,12 Z M12.485,4 L8.707,7.778 C8.316,8.169 7.684,8.169 7.293,7.778 L3.515,4 L12.485,4 Z M13,2 L3,2 C1.9,2 1,2.9 1,4 L1,12 C1,13.1 1.9,14 3,14 L13,14 C14.1,14 15,13.1 15,12 L15,4 C15,2.9 14.1,2 13,2 Z" id="path-1"></path>
    </defs>
    <g id="Symbols" stroke="none" stroke-width="1" fill="none" fill-rule="evenodd">
        <g id="icon/16px/email">
            <mask id="mask-2" fill="white">
                <use xlink:href="#path-1"></use>
            </mask>
            <use id="email" fill="#42526E" xlink:href="#path-1"></use>
        </g>
    </g>
</svg>