<?xml version="1.0" encoding="UTF-8"?>
<svg width="16px" height="16px" viewBox="0 0 16 16" version="1.1" xmlns="http://www.w3.org/2000/svg" xmlns:xlink="http://www.w3.org/1999/xlink">
    <!-- Generator: Sketch 48.2 (47327) - http://www.bohemiancoding.com/sketch -->
    <title>confluence/16px/right-side-bar</title>
    <desc>Created with Sketch.</desc>
    <defs></defs>
    <g id="Editor-icons---v2" stroke="none" stroke-width="1" fill="none" fill-rule="evenodd">
        <g id="confluence/16px/right-side-bar" fill="#42526E">
            <path d="M12,2 L13,2 C13.5522847,2 14,2.44771525 14,3 L14,13 C14,13.5522847 13.5522847,14 13,14 L12,14 C11.4477153,14 11,13.5522847 11,13 L11,3 C11,2.44771525 11.4477153,2 12,2 Z" id="Rectangle-16-Copy-5"></path>
            <path d="M3,2 L8,2 C8.55228475,2 9,2.44771525 9,3 L9,13 C9,13.5522847 8.55228475,14 8,14 L3,14 C2.44771525,14 2,13.5522847 2,13 L2,3 C2,2.44771525 2.44771525,2 3,2 Z" id="Rectangle-16-Copy-6"></path>
        </g>
    </g>
</svg>