<?xml version="1.0" encoding="UTF-8"?>
<svg width="16px" height="16px" viewBox="0 0 16 16" version="1.1" xmlns="http://www.w3.org/2000/svg" xmlns:xlink="http://www.w3.org/1999/xlink">
    <!-- Generator: Sketch 48.2 (47327) - http://www.bohemiancoding.com/sketch -->
    <title>icon/16px/trash-16px</title>
    <desc>Created with Sketch.</desc>
    <defs></defs>
    <g id="Symbols" stroke="none" stroke-width="1" fill="none" fill-rule="evenodd">
        <g id="icon/16px/trash" fill="#42526E">
            <path d="M3.00499842,5 L2.50034732,5 C2.22401312,5 2,4.78596497 2,4.49531555 L2,3.50468445 C2,3.22595492 2.22900057,3 2.50034732,3 L6,3 L6,2.5 C6,2.22385763 6.21505737,2 6.49047852,2 L9.50952148,2 C9.78040529,2 10,2.23193359 10,2.5 L10,3 L13.4996527,3 C13.7759869,3 14,3.21403503 14,3.50468445 L14,4.49531555 C14,4.77404508 13.7709994,5 13.4996527,5 L12.4903505,5 L3.00499842,5 Z M12.7777778,6 L11.1075287,13.5161209 C11.0481422,13.78336 10.7721195,14 10.5089948,14 L5.49100518,14 C5.21983051,14 4.95056152,13.7775269 4.89247131,13.5161209 L3.22222222,6 L12.7777778,6 Z" id="Shape"></path>
        </g>
    </g>
</svg>